#System   Charge              Form Ene Corr. (eV)
N_Ga            2                   7.2722908069
N_Ga            3                   8.1435978547
N_Ga           -1                  10.2372728320
N_Ga            0                   8.2717122490
N_Ga            1                   7.4647858911
Ga_int          2                   3.9566415146
Ga_int          3                   3.0638453220
Ga_int          0                   8.3391662537
Ga_int          1                   5.9649599825
Ga_N            2                   3.5328916850
Ga_N            3                   3.0917707151
Ga_N           -1                   7.3402691783
Ga_N            0                   5.5148367310
Ga_N            1                   4.2647281821
N_int           2                   4.2849007704
N_int           3                   4.7807281800
N_int          -1                   7.2389817055
N_int           0                   5.4877552527
N_int           1                   4.2009931380
Vac_N           2                   0.7921449857
Vac_N           3                   1.1321846638
Vac_N          -1                   5.0159308307
Vac_N           0                   2.4572343973
Vac_N           1                   0.5344783746
Mg_Ga          -1                   1.7724626092
Mg_Ga           0                   1.5932662113
Vac_Ga         -3                  10.6076636175
Vac_Ga         -1                   7.3680394847
Vac_Ga          0                   6.8856584362
Vac_Ga         -2                   8.5075949861
Vac_Ga          1                   7.0132312564
